Create 19 Sector Input-Output Table. — create_19_sector • eiat
…
    Creates a 19 Sector Input-Output Table by aggregating the 114 Sector Input-Output Table (see: create_114_sector())

    Usage

create_19_sector(path = NULL)

    Value

tibble of the industry-industry flows between 19 ANZSIC Sectors for Australia.

    Examples

create_19_sector()
#> # A tibble: 27 × 27
#>    Industry Sec…¹ Agric…² Mining Manuf…³ Elect…⁴ Const…⁵ Whole…⁶ Retai…⁷ Accom…⁸
#>    <chr>            <dbl>  <dbl>   <dbl>   <dbl>   <dbl>   <dbl>   <dbl>   <dbl>
#>  1 Agriculture, …  16343.   268.  42552.    34.8    776.    590.   3103.   1779.
#>  2 Mining            338. 20063.  43158.  4029.    5005.    773.    349.    599.
#>  3 Manufacturing    5972. 10666.  45944.  2193.   56802.   4152.   4045.  12405.
#>  4 Electricity, …   2434.  5646.   9931. 32451.    4159.   1549.   2226.   2097.
#>  5 Construction     3308. 12694.   3007.  4966.  139668.   3282.   1647.   1447.
#>  6 Wholesale Tra…   3433.  4471.  11549.  1115.   11192.   3591.   3037.   2425.
#>  7 Retail Trade      836.  1566.   3868.   554.    4443.   1653.   2342.   1153.
#>  8 Accommodation…    294.  1155.   2359.   344.    2350.    695.    713.    197.
#>  9 Transport, Po…   3742.  7363.  19412.  1697.   11419.  13233.   4293.   1523.
#> 10 Information M…    162.   622.   4446.  1087.    3388.   3370.   5501.   1307.
#> # … with 17 more rows, 18 more variables:
#> #   `Transport, Postal and Warehousing` <dbl>,
#> #   `Information Media and Telecommunications` <dbl>,
#> #   `Financial and Insurance Services` <dbl>,
#> #   `Rental, Hiring and Real Estate Services` <dbl>,
#> #   `Professional, Scientific and Technical Services` <dbl>,
#> #   `Administrative and Support Services` <dbl>, …
…
